Account address,Show boosts,Notify on new posts,Languages
eoaiuastwg@borg.social,true,false,
Linux@kitty.social,true,false,
hourlyfops@mastodon.tinyfox.dev,true,false,
cloudflare@noc.social,true,false,
FediTips@social.growyourown.services,true,false,
limepeep@kitty.social,true,false,
RedPandaEveryHr@botsin.space,true,false,
internetsociety@techpolicy.social,true,false,
owen@ordinary.cafe,true,false,
danyork@mastodon.social,true,false,
june@ordinary.cafe,true,false,
year_progress@voi.social,true,false,
vivaldiversiontracker@vivaldi.net,true,false,
Vivaldi@vivaldi.net,true,false,
jon@vivaldi.net,true,false,
housepanther@goblackcat.social,true,false,
BrodieOnLinux@mstdn.social,true,false,
enigmatico@mk.absturztau.be,true,false,
MariaTheMartian@kitty.social,true,false,
cloudflareradar@noc.social,true,false,
peertube@framapiaf.org,true,false,
FreeBSDFoundation@mastodon.social,true,false,
kaiteki@social.kaiteki.app,true,false,
foxes_in_love@botsin.space,true,false,
internetarchive@mastodon.archive.org,true,false,
openmandriva@linuxrocks.online,true,false,
aria_app@misskey.io,true,false,
lea@ordinary.cafe,true,false,
hq@fedi.fyralabs.com,true,false,
korewaChino@ordinary.cafe,true,false,
absturztaube@fedi.absturztau.be,true,false,
BBCWorld@press.coop,true,false,
jaiden@ordinary.cafe,true,false,
TwittleDee@mastodon.social,true,false,
wikimediafoundation@wikimedia.social,true,false,
GrapheneOS@grapheneos.social,true,false,
LXQt@mastodon.social,true,false,
kbnet@sakurajima.moe,true,false,
Sharkey@shonk.social,true,false,
pom@eattherich.club,true,false,
eff@mastodon.social,true,false,
loops@pixelfed.social,true,false,
foss_android@mstdn.social,true,false,
Kitty@kitty.social,true,false,
alice_watson@infosec.exchange,true,false,
privacybadger@mastodon.social,true,false,
TaiwaninMchrome@mastodon.world,true,false,
madomado@floss.social,true,false,
fedora@fosstodon.org,true,false,
videolan@floss.social,true,false,
ivpn@mastodon.social,true,false,
debian_os@mastodon.social,true,false,
opensuse@fosstodon.org,true,false,
anianimalsmoe@sakurajima.moe,true,false,
NaraMoore@toot.community,true,false,
xfce@floss.social,true,false,
dbelson@mastodon.social,true,false,
ultramarine@fedi.fyralabs.com,true,false,
GIMP@floss.social,true,false,
pipewire@fosstodon.org,true,false,
fdroidorg@floss.social,true,false,
omgubuntu@floss.social,true,false,
NaraMoore@sakurajima.moe,true,false,
kde@floss.social,true,false,
Climatehistories@mastodon.social,true,false,
Test_Mastodon@mastodon.social,true,false,
usebottles@mastodon.online,true,false,
omglinux@mastodon.social,true,false,
fediversereport@mastodon.social,true,false,
gnome@floss.social,true,false,
flathub@floss.social,true,false,
manjarolinux@masto.ai,true,false,
alpinelinux@fosstodon.org,true,false,
bosquebill@techhub.social,true,false,
haveibeenpwned@infosec.exchange,true,false,
madomado@fedi.fyralabs.com,true,false,
lutris@fosstodon.org,true,false,
cappy@fedi.fyralabs.com,true,false,
UniversalBlue@fosstodon.org,true,false,
EUCommission@ec.social-network.europa.eu,true,false,
linkachus17@defcon.social,true,false,
workchronicles@mastodon.social,true,false,
Tutanota@mastodon.social,true,false,
catsalad@infosec.exchange,true,false,
davidrevoy@framapiaf.org,true,false,
kirb@hachyderm.io,true,false,
tips@tips.vivaldi.net,true,false,
debian@framapiaf.org,true,false,
wikipedia@wikis.world,true,false,
warandpeas@mastodon.social,true,false,
Mastodon@mastodon.social,true,false,
brusgaard@archaeo.social,true,false,
pixelfed@mastodon.social,true,false,
datenimperator@social.cologne,true,false,
arstechnica@mastodon.social,true,false,
MastodonEngineering@mastodon.social,true,false,
almalinux@fosstodon.org,true,false,
FlatpakApps@fosstodon.org,true,false,
Sheril@mastodon.social,true,false,
itsfoss@mastodon.social,true,false,
bitwarden@fosstodon.org,true,false,
nixCraft@mastodon.social,true,false,
EndeavourOS@mastodon.social,true,false,
libreoffice@fosstodon.org,true,false,
